[
   {
      "rule":"SHIPLOW",
      "basedOn":"hasWeight",
      "quantity":{
         "min":1,
         "max":5
      },
      "price": 10
   },
   {
      "rule":"SHIPMED",
      "basedOn":"hasWeight",
      "quantity":{
         "min":6,
         "max":10
      },
      "price": 20
   },
   {
      "rule":"SHIPLGE",
      "basedOn":"hasWeight",
      "quantity":{
         "min":11
      },
      "price": 30
   }
]
